…
## Searching

You may want to start with `dc_dois()`.


```r
dc_dois(query = "climate change")
#> datacite: dois
#> found: 434105, pages: 400, page: 1
#> slots: data, included, meta, links
#> $data
#> # A tibble: 25 x 4
#>    id    type  attributes$doi $identifiers $creators $titles $publisher
#>    <chr> <chr> <chr>          <list>       <list>    <list>  <chr>     
#>  1 10.5… dois  10.5063/aa/nc… <df[,2] [1 … <df[,6] … <df[,2… KNB Data …
#>  2 10.5… dois  10.5281/zenod… <df[,2] [3 … <df[,5] … <df[,1… Zenodo    
#>  3 10.5… dois  10.5281/zenod… <df[,2] [3 … <df[,5] … <df[,1… Zenodo    
#>  4 10.1… dois  10.1177/09596… <df[,2] [1 … <df[,6] … <df[,1… SAGE Publ…
#>  5 10.1… dois  10.15468/dl.k… <df[,2] [2 … <df[,4] … <df[,1… The Globa…
#>  6 10.1… dois  10.15468/dl.9… <df[,2] [2 … <df[,4] … <df[,1… The Globa…
#>  7 10.5… dois  10.5281/zenod… <df[,2] [3 … <df[,5] … <df[,1… Zenodo    
#>  8 10.5… dois  10.5281/zenod… <df[,2] [3 … <df[,5] … <df[,1… Zenodo    
#>  9 10.5… dois  10.5281/zenod… <df[,2] [3 … <df[,5] … <df[,1… Zenodo    
#> 10 10.5… dois  10.5281/zenod… <df[,2] [3 … <df[,5] … <df[,1… Zenodo    
#> # … with 15 more rows, and 45 more variables: $container$type <chr>,
#> #   $$identifier <chr>, $$identifierType <chr>, $$title <chr>,
#> #   $$firstPage <chr>, $$issue <chr>, $$volume <chr>, $$lastPage <chr>,
#> #   $publicationYear <int>, $subjects <list>, $contributors <list>,
#> #   $dates <list>, $language <chr>, $types$ris <chr>, $$bibtex <chr>,
#> #   $$citeproc <chr>, $$schemaOrg <chr>, $$resourceTypeGeneral <chr>,
#> #   $$resourceType <chr>, $relatedIdentifiers <list>, $sizes <list>,
#> #   $formats <list>, $version <lgl>, $rightsList <list>, $descriptions <list>,
#> #   $geoLocations <list>, $fundingReferences <list>, $url <chr>,
…
